module gitlab.com/oppy-finance/oppy-bridge

go 1.18

require (
	github.com/cenkalti/backoff v2.2.1+incompatible
	github.com/containerd/containerd v1.6.2
	github.com/cosmos/cosmos-sdk v0.45.6
	github.com/ethereum/go-ethereum v1.10.17
	github.com/gogo/protobuf v1.3.3
	github.com/gorilla/mux v1.8.0
	github.com/ipfs/go-log v1.0.5
	github.com/libp2p/go-libp2p-peerstore v0.6.0
	github.com/multiformats/go-multiaddr v0.5.0
	github.com/oppyfinance/tss v1.7.8
	github.com/prometheus/client_golang v1.12.1
	github.com/rs/zerolog v1.26.0
	github.com/stretchr/testify v1.7.1
	github.com/tendermint/btcd v0.1.1
	github.com/tendermint/tendermint v0.34.19
	gitlab.com/oppy-finance/oppychain v1.1.3
	go.uber.org/atomic v1.9.0
	golang.org/x/crypto v0.0.0-20220518034528-6f7dac969898
	google.golang.org/grpc v1.48.0
	gopkg.in/check.v1 v1.0.0-20201130134442-10cb98267c6c
	gotest.tools v2.2.0+incompatible
)

require (
	filippo.io/edwards25519 v1.0.0-beta.2 // indirect
	github.com/99designs/go-keychain v0.0.0-20191008050251-8e49817e8af4 // indirect
	github.com/99designs/keyring v1.2.1 // indirect
	github.com/ChainSafe/go-schnorrkel v0.0.0-20200405005733-88cbf1b4c40d // indirect
	github.com/DataDog/zstd v1.4.5 // indirect
	github.com/Microsoft/go-winio v0.5.1 // indirect
	github.com/Microsoft/hcsshim v0.9.2 // indirect
	github.com/ProtonMail/go-crypto v0.0.0-20210428141323-04723f9f07d7 // indirect
	github.com/StackExchange/wmi v1.2.1 // indirect
	github.com/VictoriaMetrics/fastcache v1.6.0 // indirect
	github.com/Workiva/go-datastructures v1.0.53 // indirect
	github.com/acomagu/bufpipe v1.0.3 // indirect
	github.com/agl/ed25519 v0.0.0-20200225211852-fd4d107ace12 // indirect
	github.com/andrew-d/go-termutil v0.0.0-20150726205930-009166a695a2 // indirect
	github.com/armon/go-metrics v0.3.10 // indirect
	github.com/armon/go-socks5 v0.0.0-20160902184237-e75332964ef5 // indirect
	github.com/benbjohnson/clock v1.3.0 // indirect
	github.com/beorn7/perks v1.0.1 // indirect
	github.com/bgentry/speakeasy v0.1.0 // indirect
	github.com/binance-chain/tss-lib v0.0.0-20201118045712-70b2cb4bf916 // indirect
	github.com/blang/semver v3.5.1+incompatible // indirect
	github.com/btcsuite/btcd v0.22.1 // indirect
	github.com/btcsuite/btcd/btcec/v2 v2.1.3 // indirect
	github.com/btcsuite/btcd/chaincfg/chainhash v1.0.1 // indirect
	github.com/cespare/xxhash v1.1.0 // indirect
	github.com/cespare/xxhash/v2 v2.1.2 // indirect
	github.com/cheekybits/genny v1.0.0 // indirect
	github.com/coinbase/rosetta-sdk-go v0.7.0 // indirect
	github.com/confio/ics23/go v0.6.6 // indirect
	github.com/containerd/cgroups v1.0.3 // indirect
	github.com/coreos/go-systemd/v22 v22.3.2 // indirect
	github.com/cosmos/btcutil v1.0.4 // indirect
	github.com/cosmos/go-bip39 v1.0.0 // indirect
	github.com/cosmos/iavl v0.17.3 // indirect
	github.com/cosmos/ibc-go/v2 v2.0.3 // indirect
	github.com/cosmos/ledger-cosmos-go v0.11.1 // indirect
	github.com/cosmos/ledger-go v0.9.2 // indirect
	github.com/danieljoos/wincred v1.1.2 // indirect
	github.com/davecgh/go-spew v1.1.1 // indirect
	github.com/davidlazar/go-crypto v0.0.0-20200604182044-b73af7476f6c // indirect
	github.com/deckarep/golang-set v1.8.0 // indirect
	github.com/decred/dcrd/dcrec/edwards/v2 v2.0.0 // indirect
	github.com/decred/dcrd/dcrec/secp256k1/v4 v4.0.1 // indirect
	github.com/desertbit/timer v0.0.0-20180107155436-c41aec40b27f // indirect
	github.com/dgraph-io/badger/v2 v2.2007.3 // indirect
	github.com/dgraph-io/ristretto v0.0.3 // indirect
	github.com/dgryski/go-farm v0.0.0-20200201041132-a6ae2369ad13 // indirect
	github.com/docker/docker v20.10.7+incompatible // indirect
	github.com/docker/go-units v0.4.0 // indirect
	github.com/dustin/go-humanize v1.0.1-0.20200219035652-afde56e7acac // indirect
	github.com/dvsekhvalnov/jose2go v1.5.0 // indirect
	github.com/edsrzf/mmap-go v1.0.0 // indirect
	github.com/elastic/gosigar v0.12.0 // indirect
	github.com/emicklei/proto v1.9.0 // indirect
	github.com/emirpasic/gods v1.12.0 // indirect
	github.com/fatih/color v1.13.0 // indirect
	github.com/felixge/httpsnoop v1.0.1 // indirect
	github.com/fjl/memsize v0.0.0-20190710130421-bcb5799ab5e5 // indirect
	github.com/flynn/noise v1.0.0 // indirect
	github.com/francoispqt/gojay v1.2.13 // indirect
	github.com/fsnotify/fsnotify v1.5.1 // indirect
	github.com/gballet/go-libpcsclite v0.0.0-20190607065134-2772fd86a8ff // indirect
	github.com/ghodss/yaml v1.0.0 // indirect
	github.com/go-git/gcfg v1.5.0 // indirect
	github.com/go-git/go-billy/v5 v5.3.1 // indirect
	github.com/go-git/go-git/v5 v5.4.2 // indirect
	github.com/go-kit/kit v0.12.0 // indirect
	github.com/go-kit/log v0.2.0 // indirect
	github.com/go-logfmt/logfmt v0.5.1 // indirect
	github.com/go-ole/go-ole v1.2.5 // indirect
	github.com/go-stack/stack v1.8.0 // indirect
	github.com/go-task/slim-sprig v0.0.0-20210107165309-348f09dbbbc0 // indirect
	github.com/goccy/go-yaml v1.9.4 // indirect
	github.com/godbus/dbus v0.0.0-20190726142602-4481cbc300e2 // indirect
	github.com/godbus/dbus/v5 v5.0.6 // indirect
	github.com/gogo/gateway v1.1.0 // indirect
	github.com/golang-jwt/jwt/v4 v4.3.0 // indirect
	github.com/golang/groupcache v0.0.0-20210331224755-41bb18bfe9da // indirect
	github.com/golang/protobuf v1.5.2 // indirect
	github.com/golang/snappy v0.0.4 // indirect
	github.com/google/btree v1.0.1 // indirect
	github.com/google/go-cmp v0.5.8 // indirect
	github.com/google/gopacket v1.1.19 // indirect
	github.com/google/orderedcode v0.0.1 // indirect
	github.com/google/uuid v1.3.0 // indirect
	github.com/gookit/color v1.5.0 // indirect
	github.com/gorilla/handlers v1.5.1 // indirect
	github.com/gorilla/websocket v1.5.0 // indirect
	github.com/grpc-ecosystem/go-grpc-middleware v1.3.0 // indirect
	github.com/grpc-ecosystem/grpc-gateway v1.16.0 // indirect
	github.com/gsterjov/go-libsecret v0.0.0-20161001094733-a6f4afe4910c // indirect
	github.com/gtank/merlin v0.1.1 // indirect
	github.com/gtank/ristretto255 v0.1.2 // indirect
	github.com/hashicorp/errwrap v1.1.0 // indirect
	github.com/hashicorp/go-bexpr v0.1.10 // indirect
	github.com/hashicorp/go-immutable-radix v1.3.1 // indirect
	github.com/hashicorp/go-multierror v1.1.1 // indirect
	github.com/hashicorp/golang-lru v0.5.5-0.20210104140557-80c98217689d // indirect
	github.com/hashicorp/hcl v1.0.0 // indirect
	github.com/hdevalence/ed25519consensus v0.0.0-20210204194344-59a8610d2b87 // indirect
	github.com/holiman/bloomfilter/v2 v2.0.3 // indirect
	github.com/holiman/uint256 v1.2.0 // indirect
	github.com/huin/goupnp v1.0.3-0.20220313090229-ca81a64b4204 // indirect
	github.com/iancoleman/strcase v0.2.0 // indirect
	github.com/ignite-hq/cli v0.20.0 // indirect
	github.com/imdario/mergo v0.3.12 // indirect
	github.com/improbable-eng/grpc-web v0.14.1 // indirect
	github.com/inconshreveable/mousetrap v1.0.0 // indirect
	github.com/ipfs/go-cid v0.2.0 // indirect
	github.com/ipfs/go-datastore v0.5.1 // indirect
	github.com/ipfs/go-ipfs-util v0.0.2 // indirect
	github.com/ipfs/go-ipns v0.1.2 // indirect
	github.com/ipfs/go-log/v2 v2.5.1 // indirect
	github.com/ipld/go-ipld-prime v0.16.0 // indirect
	github.com/jackpal/go-nat-pmp v1.0.2 // indirect
	github.com/jbenet/go-context v0.0.0-20150711004518-d14ea06fba99 // indirect
	github.com/jbenet/go-temp-err-catcher v0.1.0 // indirect
	github.com/jbenet/goprocess v0.1.4 // indirect
	github.com/jmhodges/levigo v1.0.0 // indirect
	github.com/jpillora/ansi v1.0.2 // indirect
	github.com/jpillora/backoff v1.0.0 // indirect
	github.com/jpillora/chisel v1.7.7 // indirect
	github.com/jpillora/requestlog v1.0.0 // indirect
	github.com/jpillora/sizestr v1.0.0 // indirect
	github.com/kevinburke/ssh_config v0.0.0-20201106050909-4977a11b4351 // indirect
	github.com/klauspost/compress v1.15.1 // indirect
	github.com/klauspost/cpuid/v2 v2.0.12 // indirect
	github.com/koron/go-ssdp v0.0.2 // indirect
	github.com/kr/pretty v0.3.0 // indirect
	github.com/kr/text v0.2.0 // indirect
	github.com/lib/pq v1.10.4 // indirect
	github.com/libp2p/go-buffer-pool v0.0.2 // indirect
	github.com/libp2p/go-cidranger v1.1.0 // indirect
	github.com/libp2p/go-eventbus v0.2.1 // indirect
	github.com/libp2p/go-flow-metrics v0.0.3 // indirect
	github.com/libp2p/go-libp2p v0.20.3 // indirect
	github.com/libp2p/go-libp2p-asn-util v0.2.0 // indirect
	github.com/libp2p/go-libp2p-core v0.16.1 // indirect
	github.com/libp2p/go-libp2p-discovery v0.5.0 // indirect
	github.com/libp2p/go-libp2p-kad-dht v0.16.0 // indirect
	github.com/libp2p/go-libp2p-kbucket v0.4.7 // indirect
	github.com/libp2p/go-libp2p-record v0.1.3 // indirect
	github.com/libp2p/go-libp2p-resource-manager v0.3.0 // indirect
	github.com/libp2p/go-msgio v0.2.0 // indirect
	github.com/libp2p/go-nat v0.1.0 // indirect
	github.com/libp2p/go-netroute v0.2.0 // indirect
	github.com/libp2p/go-openssl v0.0.7 // indirect
	github.com/libp2p/go-reuseport v0.2.0 // indirect
	github.com/libp2p/go-yamux/v3 v3.1.2 // indirect
	github.com/lucas-clemente/quic-go v0.27.1 // indirect
	github.com/magiconair/properties v1.8.6 // indirect
	github.com/marten-seemann/qtls-go1-16 v0.1.5 // indirect
	github.com/marten-seemann/qtls-go1-17 v0.1.1 // indirect
	github.com/marten-seemann/qtls-go1-18 v0.1.1 // indirect
	github.com/marten-seemann/tcp v0.0.0-20210406111302-dfbc87cc63fd // indirect
	github.com/mattn/go-colorable v0.1.12 // indirect
	github.com/mattn/go-isatty v0.0.14 // indirect
	github.com/mattn/go-runewidth v0.0.10 // indirect
	github.com/mattn/go-zglob v0.0.3 // indirect
	github.com/matttproud/golang_protobuf_extensions v1.0.2-0.20181231171920-c182affec369 // indirect
	github.com/miekg/dns v1.1.43 // indirect
	github.com/mikioh/tcpinfo v0.0.0-20190314235526-30a79bb1804b // indirect
	github.com/mikioh/tcpopt v0.0.0-20190314235656-172688c1accc // indirect
	github.com/mimoo/StrobeGo v0.0.0-20181016162300-f8f6d4d2b643 // indirect
	github.com/minio/blake2b-simd v0.0.0-20160723061019-3f5f724cb5b1 // indirect
	github.com/minio/highwayhash v1.0.2 // indirect
	github.com/minio/sha256-simd v1.0.0 // indirect
	github.com/mitchellh/go-homedir v1.1.0 // indirect
	github.com/mitchellh/mapstructure v1.4.3 // indirect
	github.com/mitchellh/pointerstructure v1.2.0 // indirect
	github.com/moby/sys/mount v0.3.1 // indirect
	github.com/moby/sys/mountinfo v0.6.0 // indirect
	github.com/mr-tron/base58 v1.2.0 // indirect
	github.com/mtibben/percent v0.2.1 // indirect
	github.com/multiformats/go-base32 v0.0.4 // indirect
	github.com/multiformats/go-base36 v0.1.0 // indirect
	github.com/multiformats/go-multiaddr-dns v0.3.1 // indirect
	github.com/multiformats/go-multiaddr-fmt v0.1.0 // indirect
	github.com/multiformats/go-multibase v0.0.3 // indirect
	github.com/multiformats/go-multicodec v0.4.1 // indirect
	github.com/multiformats/go-multihash v0.1.0 // indirect
	github.com/multiformats/go-multistream v0.3.3 // indirect
	github.com/multiformats/go-varint v0.0.6 // indirect
	github.com/nxadm/tail v1.4.8 // indirect
	github.com/olekukonko/tablewriter v0.0.5 // indirect
	github.com/onsi/ginkgo v1.16.4 // indirect
	github.com/opencontainers/go-digest v1.0.0 // indirect
	github.com/opencontainers/image-spec v1.0.2 // indirect
	github.com/opencontainers/runc v1.1.0 // indirect
	github.com/opencontainers/runtime-spec v1.0.3-0.20210326190908-1c3f411f0417 // indirect
	github.com/opentracing/opentracing-go v1.2.0 // indirect
	github.com/otiai10/copy v1.6.0 // indirect
	github.com/otiai10/primes v0.0.0-20180210170552-f6d2a1ba97c4 // indirect
	github.com/pbnjay/memory v0.0.0-20210728143218-7b4eea64cf58 // indirect
	github.com/pelletier/go-toml v1.9.4 // indirect
	github.com/petermattis/goid v0.0.0-20180202154549-b0b1615b78e5 // indirect
	github.com/pkg/errors v0.9.1 // indirect
	github.com/pmezard/go-difflib v1.0.0 // indirect
	github.com/polydawn/refmt v0.0.0-20201211092308-30ac6d18308e // indirect
	github.com/prometheus/client_model v0.2.0 // indirect
	github.com/prometheus/common v0.33.0 // indirect
	github.com/prometheus/procfs v0.7.3 // indirect
	github.com/prometheus/tsdb v0.7.1 // indirect
	github.com/radovskyb/watcher v1.0.7 // indirect
	github.com/rakyll/statik v0.1.7 // indirect
	github.com/raulk/clock v1.1.0 // indirect
	github.com/raulk/go-watchdog v1.2.0 // indirect
	github.com/rcrowley/go-metrics v0.0.0-20200313005456-10cdbea86bc0 // indirect
	github.com/regen-network/cosmos-proto v0.3.1 // indirect
	github.com/rivo/uniseg v0.2.0 // indirect
	github.com/rjeczalik/notify v0.9.1 // indirect
	github.com/rogpeppe/go-internal v1.8.1 // indirect
	github.com/rs/cors v1.8.2 // indirect
	github.com/sasha-s/go-deadlock v0.2.1-0.20190427202633-1595213edefa // indirect
	github.com/sergi/go-diff v1.1.0 // indirect
	github.com/shirou/gopsutil v3.21.4-0.20210419000835-c7a38de76ee5+incompatible // indirect
	github.com/sirupsen/logrus v1.8.1 // indirect
	github.com/spacemonkeygo/spacelog v0.0.0-20180420211403-2296661a0572 // indirect
	github.com/spaolacci/murmur3 v1.1.0 // indirect
	github.com/spf13/afero v1.6.0 // indirect
	github.com/spf13/cast v1.4.1 // indirect
	github.com/spf13/cobra v1.4.0 // indirect
	github.com/spf13/jwalterweatherman v1.1.0 // indirect
	github.com/spf13/pflag v1.0.5 // indirect
	github.com/spf13/viper v1.10.1 // indirect
	github.com/status-im/keycard-go v0.0.0-20190316090335-8537d3370df4 // indirect
	github.com/subosito/gotenv v1.2.0 // indirect
	github.com/syndtr/goleveldb v1.0.1-0.20210819022825-2ae1ddf74ef7 // indirect
	github.com/takuoki/gocase v1.0.0 // indirect
	github.com/tecbot/gorocksdb v0.0.0-20191217155057-f0fad39f321c // indirect
	github.com/tendermint/crypto v0.0.0-20191022145703-50d29ede1e15 // indirect
	github.com/tendermint/fundraising v0.2.0 // indirect
	github.com/tendermint/go-amino v0.16.0 // indirect
	github.com/tendermint/spn v0.1.1-0.20220407154406-5cfd1bf28150 // indirect
	github.com/tendermint/tm-db v0.6.6 // indirect
	github.com/tklauser/go-sysconf v0.3.7 // indirect
	github.com/tklauser/numcpus v0.2.3 // indirect
	github.com/tomasen/realip v0.0.0-20180522021738-f0c99a92ddce // indirect
	github.com/tyler-smith/go-bip39 v1.0.2 // indirect
	github.com/whyrusleeping/go-keyspace v0.0.0-20160322163242-5b898ac5add1 // indirect
	github.com/whyrusleeping/multiaddr-filter v0.0.0-20160516205228-e903e4adabd7 // indirect
	github.com/xanzy/ssh-agent v0.3.0 // indirect
	github.com/xo/terminfo v0.0.0-20210125001918-ca9a967f8778 // indirect
	github.com/zondax/hid v0.9.0 // indirect
	go.etcd.io/bbolt v1.3.6 // indirect
	go.opencensus.io v0.23.0 // indirect
	go.uber.org/multierr v1.8.0 // indirect
	go.uber.org/zap v1.21.0 // indirect
	golang.org/x/mod v0.6.0-dev.0.20220106191415-9b9b3d81d5e3 // indirect
	golang.org/x/net v0.0.0-20220624214902-1bab6f366d9e // indirect
	golang.org/x/sync v0.0.0-20210220032951-036812b2e83c // indirect
	golang.org/x/sys v0.0.0-20220610221304-9f5ed59c137d // indirect
	golang.org/x/term v0.0.0-20210927222741-03fcf44c2211 // indirect
	golang.org/x/text v0.3.7 // indirect
	golang.org/x/time v0.0.0-20210723032227-1f47c861a9ac // indirect
	golang.org/x/tools v0.1.7 // indirect
	golang.org/x/xerrors v0.0.0-20200804184101-5ec99f83aff1 // indirect
	google.golang.org/genproto v0.0.0-20220719170305-83ca9fad585f // indirect
	google.golang.org/protobuf v1.28.0 // indirect
	gopkg.in/ini.v1 v1.66.2 // indirect
	gopkg.in/natefinch/npipe.v2 v2.0.0-20160621034901-c1b8fa8bdcce // indirect
	gopkg.in/tomb.v1 v1.0.0-20141024135613-dd632973f1e7 // indirect
	gopkg.in/urfave/cli.v1 v1.20.0 // indirect
	gopkg.in/warnings.v0 v0.1.2 // indirect
	gopkg.in/yaml.v2 v2.4.0 // indirect
	gopkg.in/yaml.v3 v3.0.1 // indirect
	lukechampine.com/blake3 v1.1.7 // indirect
	nhooyr.io/websocket v1.8.6 // indirect
)

replace (
	github.com/agl/ed25519 => github.com/binance-chain/edwards25519 v0.0.0-20200305024217-f36fc4b53d43
	github.com/binance-chain/tss-lib => gitlab.com/thorchain/tss/tss-lib v0.1.2
	github.com/gogo/protobuf => github.com/regen-network/protobuf v1.3.3-alpha.regen.1
	google.golang.org/grpc => google.golang.org/grpc v1.33.2
)
